Generalized Additive Models in R
…
[File format](https://www.metoffice.gov.uk/hadobs/hadcrut4/data/current/series_format.html)

---

# HadCRUT data set

```r
gtemp
```

```
## # A tibble: 172 × 2
##     Year Temperature
##    <dbl>       <dbl>
##  1  1850      -0.336
##  2  1851      -0.159
##  3  1852      -0.107
##  4  1853      -0.177
##  5  1854      -0.071
##  6  1855      -0.19 
##  7  1856      -0.378
##  8  1857      -0.405
##  9  1858      -0.4  
## 10  1859      -0.215
## # ℹ 162 more rows
```
…
---

# Smooth interactions

```r
df
```

```
## # A tibble: 500 × 3
##           y        x      z
##       <dbl>    <dbl>  <dbl>
##  1  0.106   0.000670 0.804 
##  2  0.190   0.0191   0.759 
##  3  0.327   0.0435   0.957 
##  4  0.0271  0.0170   0.994 
##  5  0.441   0.0241   0.606 
##  6  0.00930 0.0300   0.0294
##  7  0.569   0.0247   0.336 
##  8  0.530   0.00931  0.278 
##  9  0.0855  0.0414   0.117 
## 10 -0.125   0.0334   0.0432
## # ℹ 490 more rows
```
…
.small[

```r
galveston <- read_csv("https://bit.ly/gam-galveston") %>%
    mutate(datetime = as.POSIXct(paste(DATE, TIME),
                                 format = '%m/%d/%y %H:%M', tz = "CDT"),
           STATION_ID = factor(STATION_ID),
           DoY = as.numeric(format(datetime, format = '%j')),
           ToD = as.numeric(format(datetime, format = '%H')) +
               (as.numeric(format(datetime, format = '%M')) / 60))
galveston
```

```
## # A tibble: 15,276 × 13
##    STATION_ID DATE     TIME   LATITUDE LONGITUDE  YEAR MONTH   DAY SEASON
##    <fct>      <chr>    <time>    <dbl>     <dbl> <dbl> <dbl> <dbl> <chr> 
##  1 13296      6/20/91  11:04      29.5     -94.8  1991     6    20 Summer
##  2 13296      3/17/92  09:30      29.5     -94.8  1992     3    17 Spring
##  3 13296      9/23/91  11:24      29.5     -94.8  1991     9    23 Fall  
##  4 13296      9/23/91  11:24      29.5     -94.8  1991     9    23 Fall  
##  5 13296      6/20/91  11:04      29.5     -94.8  1991     6    20 Summer
##  6 13296      12/17/91 10:15      29.5     -94.8  1991    12    17 Winter
##  7 13296      6/29/92  11:17      29.5     -94.8  1992     6    29 Summer
##  8 13305      3/24/87  11:53      29.6     -95.0  1987     3    24 Spring
##  9 13305      4/2/87   13:39      29.6     -95.0  1987     4     2 Spring
## 10 13305      8/11/87  15:25      29.6     -95.0  1987     8    11 Summer
## # ℹ 15,266 more rows
## # ℹ 4 more variables: MEASUREMENT <dbl>, datetime <dttm>, DoY <dbl>, ToD <dbl>
```
…
